
# 2019-09-29 14:52:12.406819
+insert

# 2019-09-29 15:04:21.555933
+exit

# 2019-09-29 15:04:25.107668
+connect

# 2019-09-29 15:04:40.658698
+exit

# 2019-09-29 15:04:43.334025
+connect

# 2019-09-29 15:04:45.557482
+up

# 2019-09-29 15:04:47.881554
+connect

# 2019-09-29 15:04:49.592841
+host

# 2019-09-29 15:05:46.466669
+connect

# 2019-09-29 15:05:48.946715
+?

# 2019-09-29 15:08:56.614644
+connect

# 2019-09-29 15:08:58.657699
+host

# 2019-09-29 15:09:01.581727
+?

# 2019-09-29 15:14:51.920222
+connect

# 2019-09-29 15:15:05.837213
+..

# 2019-09-29 15:15:07.929512
+up

# 2019-09-29 15:15:23.491227
+c

# 2019-09-29 15:15:25.302697
+connect

# 2019-09-29 15:15:26.358696
+..

# 2019-09-29 15:15:53.263459
+connect

# 2019-09-29 15:22:05.262695
+host

# 2019-09-29 15:44:57.889502
+connect

# 2019-09-29 15:45:01.138697
+host

# 2019-09-29 15:46:08.931048
+connect

# 2019-09-29 15:46:10.703474
+host

# 2019-09-29 15:47:14.019311
+connect

# 2019-09-29 15:47:15.902651
+host 

# 2019-09-29 15:47:30.073376
+connect

# 2019-09-29 15:47:33.247704
+host 

# 2019-09-29 15:47:48.427277
+connect

# 2019-09-29 15:47:48.901696
+host 

# 2019-09-29 15:49:16.510969
+connect

# 2019-09-29 15:49:54.409629
+host 

# 2019-09-29 15:49:56.761669
+host a

# 2019-09-29 15:50:21.564577
+connect

# 2019-09-29 15:50:23.519668
+host a

# 2019-09-29 15:50:35.846450
+host

# 2019-09-29 15:51:15.945604
+connect

# 2019-09-29 15:51:18.460702
+host a

# 2019-09-29 15:51:46.248393
+connect

# 2019-09-29 15:51:47.036402
+host a

# 2019-09-29 15:52:08.058248
+connect

# 2019-09-29 15:52:08.813698
+host a

# 2019-09-29 15:52:15.821954
+connect

# 2019-09-29 15:52:16.713262
+host a

# 2019-09-29 15:52:32.871675
+connect

# 2019-09-29 15:52:33.571521
+host a

# 2019-09-29 15:52:50.735619
+connect

# 2019-09-29 15:52:52.092483
+host a

# 2019-09-29 15:53:17.141064
+connect

# 2019-09-29 15:53:18.384700
+host a

# 2019-09-29 15:53:36.422702
+connect

# 2019-09-29 15:53:37.170694
+host a

# 2019-09-29 15:53:42.208185
+host a l a

# 2019-09-29 15:54:23.698190
+connect

# 2019-09-29 15:54:25.352697
+a v

# 2019-09-29 15:55:21.879213
+connect

# 2019-09-29 15:55:22.722734
+a v

# 2019-09-29 15:55:31.026504
+connect

# 2019-09-29 15:55:46.311701
+a v

# 2019-09-29 15:56:39.637204
+connect

# 2019-09-29 15:56:53.757693
+a v

# 2019-09-29 15:57:52.746185
+connect

# 2019-09-29 15:57:53.901669
+a v

# 2019-09-29 15:58:33.354518
+connect

# 2019-09-29 15:58:34.814564
+a v

# 2019-09-29 16:00:04.574669
+connect

# 2019-09-29 16:00:05.889696
+a v

# 2019-09-29 16:00:15.125696
+connect

# 2019-09-29 16:00:15.944695
+a v

# 2019-09-29 16:00:19.236426
+host a

# 2019-09-29 16:00:22.864405
+host = b

# 2019-09-29 16:00:26.667579
+host:

# 2019-09-29 16:00:29.434668
+host:a

# 2019-09-29 16:00:34.317699
+host=192.123

# 2019-09-29 16:00:40.002511
+host=192::0

# 2019-09-29 16:00:45.413112
+host='192::0'

# 2019-09-29 16:01:17.557583
+host

# 2019-09-29 16:01:20.355698
+host user

# 2019-09-29 16:04:54.630488
+connect

# 2019-09-29 16:07:52.520882
+do

# 2019-09-29 16:08:00.104614
+host a

# 2019-09-29 16:08:01.383504
+do

# 2019-09-29 16:09:07.984087
+connect

# 2019-09-29 16:09:10.608669
+host a

# 2019-09-29 16:09:12.476509
+do

# 2019-09-29 16:09:53.947669
+connect

# 2019-09-29 16:09:56.831698
+do

# 2019-09-29 16:09:58.926698
+host a

# 2019-09-29 16:10:00.098702
+do

# 2019-09-29 16:11:40.065208
+connect

# 2019-09-29 16:11:43.379692
+host a

# 2019-09-29 16:12:05.557913
+connect

# 2019-09-29 16:12:07.345056
+host a

# 2019-09-29 16:13:00.820033
+connect

# 2019-09-29 16:13:05.581612
+host a

# 2019-09-29 16:13:30.976710
+connect

# 2019-09-29 16:13:34.745706
+host

# 2019-09-29 16:13:37.952701
+host a

# 2019-09-29 16:13:39.874715
+do

# 2019-09-29 16:14:25.449693
+connect

# 2019-09-29 16:14:27.176697
+host a

# 2019-09-29 16:14:48.861963
+connect

# 2019-09-29 16:14:49.705698
+host a

# 2019-09-29 16:16:54.909668
+connect

# 2019-09-29 16:16:57.739695
+host a

# 2019-09-29 16:17:00.082696
+do

# 2019-09-29 16:17:02.627620
+host 

# 2019-09-29 16:17:05.371450
+connect

# 2019-09-29 16:17:06.566704
+host

# 2019-09-29 16:17:08.478404
+password

# 2019-09-29 16:17:11.373305
+user

# 2019-09-29 16:17:45.896509
+connect

# 2019-09-29 16:17:47.674668
+host a

# 2019-09-29 16:17:50.017426
+host

# 2019-09-29 16:17:53.986699
+password

# 2019-09-29 16:17:56.331767
+user

# 2019-09-29 16:17:58.668168
+user a

# 2019-09-29 16:18:01.785710
+password b

# 2019-09-29 16:18:04.638696
+host z

# 2019-09-29 16:18:06.729769
+do

# 2019-09-29 16:18:51.335022
+host z

# 2019-09-29 16:18:52.669698
+connect

# 2019-09-29 16:18:54.302694
+hsot a

# 2019-09-29 16:18:54.994428
+do

# 2019-09-29 16:18:58.637826
+host a

# 2019-09-29 16:19:00.301724
+do

# 2019-09-29 16:19:02.449258
+..

# 2019-09-29 16:19:07.052489
+exit

# 2019-09-29 16:19:11.616669
+connect

# 2019-09-29 16:19:16.088402
+host a user b password c

# 2019-09-29 16:19:22.162495
+do

# 2019-09-29 16:19:48.484488
+connect

# 2019-09-29 16:19:50.318668
+host &a

# 2019-09-29 16:20:36.400989
+connect

# 2019-09-29 16:20:41.020906
+host 'test'

# 2019-09-29 16:20:47.955298
+host 192.168.12.3

# 2019-09-29 16:20:52.410697
+host ff::0

# 2019-09-29 16:27:11.857026
+connect

# 2019-09-29 16:27:13.530695
+host a

# 2019-09-29 16:27:51.359557
+connect

# 2019-09-29 16:27:52.425874
+hos a

# 2019-09-29 16:27:53.937669
+host a

# 2019-09-29 16:28:24.546076
+connect

# 2019-09-29 16:28:25.658668
+host a

# 2019-09-29 16:31:13.594943
+connect

# 2019-09-29 16:31:15.406455
+host a

# 2019-09-29 16:32:46.444692
+connect

# 2019-09-29 16:32:48.144529
+host a

# 2019-09-29 16:32:51.751697
+host a:b

# 2019-09-29 16:33:01.222692
+host a:b user=v

# 2019-09-29 16:33:13.551926
+connect

# 2019-09-29 16:33:14.900536
+host a

# 2019-09-29 16:33:18.423700
+host a::0

# 2019-09-29 16:33:37.774309
+connect

# 2019-09-29 16:33:39.321669
+host a

# 2019-09-29 16:33:49.908696
+hsot

# 2019-09-29 16:33:51.987706
+host

# 2019-09-29 16:34:19.419982
+connect

# 2019-09-29 16:34:21.023375
+h

# 2019-09-29 16:34:38.585725
+connect

# 2019-09-29 16:34:39.229335
+s

# 2019-09-29 16:35:10.668705
+connect

# 2019-09-29 16:35:11.736536
+h

# 2019-09-29 16:37:14.787525
+host a.c.f

# 2019-09-29 16:37:45.699541
+connect

# 2019-09-29 16:37:46.942992
+?

# 2019-09-29 16:40:28.072690
+connect

# 2019-09-29 16:40:30.134694
+?

# 2019-09-29 16:41:31.514933
+connect

# 2019-09-29 16:41:34.173697
+ssl

# 2019-09-29 16:42:47.784692
+connect

# 2019-09-29 16:42:49.638701
+ssl

# 2019-09-29 16:42:55.395031
+ssl true

# 2019-09-29 16:43:20.423912
+connect

# 2019-09-29 16:43:22.767545
+ssl

# 2019-09-29 16:43:49.532064
+connect

# 2019-09-29 16:43:50.806698
+ssl

# 2019-09-29 16:43:55.026630
+sss

# 2019-09-29 16:43:56.142647
+ssl

# 2019-09-29 16:44:01.812390
+host a.b.c

# 2019-09-29 16:44:04.098545
+do

# 2019-09-29 17:00:47.004655
+connect

# 2019-09-29 17:00:49.526701
+do

# 2019-09-29 17:01:29.814536
+connect

# 2019-09-29 17:01:31.100695
+do

# 2019-09-29 17:01:59.993692
+c

# 2019-09-29 17:02:02.007704
+connect

# 2019-09-29 17:02:03.432537
+do

# 2019-09-29 17:02:08.524513
+host a

# 2019-09-29 17:02:09.287493
+do

# 2019-09-29 17:30:41.079704
+connect

# 2019-09-29 17:30:43.346668
+ssl

# 2019-09-29 17:31:09.699402
+connect

# 2019-09-29 17:31:10.846696
+ssl

# 2019-09-29 17:31:14.786697
+do

# 2019-09-29 17:31:17.593696
+host 1.2.3

# 2019-09-29 17:31:25.112698
+host a::1

# 2019-09-29 17:31:27.372697
+do

# 2019-09-29 17:31:30.267697
+..

# 2019-09-29 17:31:32.460759
+q

# 2019-09-29 17:43:51.653668
+connect

# 2019-09-29 17:43:53.674735
+ssl

# 2019-09-29 17:43:56.829500
+user

# 2019-09-29 17:43:58.628696
+user a

# 2019-09-29 17:44:01.436695
+host a

# 2019-09-29 17:44:03.487697
+do

# 2019-09-29 17:44:04.931697
+q

# 2019-09-29 17:49:58.720835
+connect

# 2019-09-29 17:58:03.061603
+host 192.168.56.254

# 2019-09-29 17:58:06.320692
+do

# 2019-09-29 18:01:53.930980
+connect

# 2019-09-29 18:01:55.933471
+do

# 2019-09-29 18:03:54.453668
+connect

# 2019-09-29 18:03:55.573696
+do

# 2019-09-29 18:03:59.180293
+q

# 2019-09-29 18:05:39.087146
+connect

# 2019-09-29 18:05:40.278496
+do

# 2019-09-29 18:06:14.645691
+c

# 2019-09-29 18:06:16.323696
+connect

# 2019-09-29 18:06:16.983568
+d

# 2019-09-29 18:06:19.229695
+do

# 2019-09-29 18:06:31.481874
+connect

# 2019-09-29 18:06:32.077696
+do

# 2019-09-29 18:07:09.300941
+connect

# 2019-09-29 18:07:10.016579
+do

# 2019-09-29 18:07:15.531696
+connect

# 2019-09-29 18:07:18.147669
+dis

# 2019-09-29 18:27:40.267088
+version

# 2019-09-29 18:28:16.521590
+connect

# 2019-09-29 18:28:17.704669
+down

# 2019-09-29 18:28:55.228669
+connect

# 2019-09-29 18:28:57.483511
+down

# 2019-09-29 18:29:02.174692
+do

# 2019-09-29 18:29:04.481704
+up

# 2019-09-29 18:29:10.457660
+down

# 2019-09-29 18:29:11.957611
+ver

# 2019-09-29 18:29:14.528670
+version

# 2019-09-29 18:29:18.488702
+?

# 2019-09-29 18:29:52.003283
+connect

# 2019-09-29 18:29:54.752742
+up

# 2019-09-29 18:29:57.901697
+version

# 2019-09-29 18:30:03.110698
+connect

# 2019-09-29 18:30:04.993695
+down

# 2019-09-29 18:30:07.208641
+version

# 2019-09-29 18:30:12.373234
+connect

# 2019-09-29 18:30:13.484379
+ssl

# 2019-09-29 18:30:15.075694
+up

# 2019-09-29 18:30:16.290545
+connect

# 2019-09-29 18:32:00.708571
+down

# 2019-09-29 18:32:03.243706
+version

# 2019-09-29 19:25:26.990409
+connect

# 2019-09-29 19:25:28.638508
+up

# 2019-09-29 19:25:42.265692
+c

# 2019-09-29 19:25:43.287293
+connect

# 2019-09-29 19:25:44.419669
+up

# 2019-09-29 19:26:03.301692
+connect

# 2019-09-29 19:26:04.465541
+up

# 2019-09-29 19:26:20.463291
+connect

# 2019-09-29 19:26:21.686940
+up

# 2019-09-29 19:26:46.971554
+connect

# 2019-09-29 19:26:47.517695
+up

# 2019-09-29 19:27:10.927878
+connect

# 2019-09-29 19:27:12.238703
+up

# 2019-09-29 19:27:30.080394
+connect

# 2019-09-29 19:27:30.960669
+up

# 2019-09-29 20:23:00.291586
+connect

# 2019-09-29 20:23:02.311408
+up

# 2019-09-29 20:23:05.598697
+version

# 2019-09-29 20:24:30.334110
+connect

# 2019-09-29 20:24:31.625695
+up

# 2019-09-29 20:24:33.960697
+version

# 2019-09-29 20:24:37.651698
+q

# 2019-09-29 20:24:49.654173
+connect

# 2019-09-29 20:24:51.165700
+up

# 2019-09-29 20:24:56.768869
+connect

# 2019-09-29 20:24:58.884699
+down

# 2019-09-29 20:25:02.332695
+connect

# 2019-09-29 20:25:03.436624
+up

# 2019-10-06 14:04:22.281318
+connect

# 2019-10-06 14:04:35.267177
+up

# 2019-10-06 14:04:57.900291
+q

# 2019-10-06 14:08:11.694152
+connect

# 2019-10-06 14:08:33.826459
+exit

# 2019-10-06 14:08:36.189921
+connect

# 2019-10-06 14:08:44.180530
+disconnect

# 2019-10-06 14:08:46.004457
+q

# 2019-10-06 14:23:14.182857
+connect

# 2019-10-06 14:36:28.663028
+q

# 2019-10-06 14:37:13.980740
+connect

# 2019-10-06 14:37:44.421538
+disconnect

# 2019-10-06 14:37:46.573422
+connect

# 2019-10-06 14:38:58.746654
+q

# 2019-10-06 14:39:59.933449
+connect

# 2019-10-06 14:40:14.432247
+disconnect

# 2019-10-06 14:54:05.750857
+connect

# 2019-10-06 15:18:47.136537
+c

# 2019-10-06 15:18:48.412226
+connect

# 2019-10-06 15:19:07.389371
+c

# 2019-10-06 15:19:08.580462
+connect

# 2019-10-06 15:20:07.475527
+c

# 2019-10-06 15:20:08.586531
+connect

# 2019-10-06 15:20:31.194653
+c

# 2019-10-06 15:20:32.289540
+connect

# 2019-10-06 15:21:23.140684
+c

# 2019-10-06 15:21:24.104534
+connect

# 2019-10-06 15:29:25.901342
+disconnect

# 2019-10-06 15:29:34.406531
+connect

# 2019-10-06 15:29:54.233532
+q

# 2019-10-06 15:31:05.762529
+c

# 2019-10-06 15:31:07.042536
+connect

# 2019-10-06 15:31:21.872534
+ssl

# 2019-10-06 15:31:24.064441
+connect

# 2019-10-06 15:31:34.700271
+disconnect

# 2019-10-06 15:31:36.114504
+q

# 2019-10-06 15:36:36.100026
+space

# 2019-10-06 15:37:34.672535
+connect

# 2019-10-06 15:37:37.447303
+space

# 2019-10-06 15:37:50.706361
+connect

# 2019-10-06 15:37:54.085504
+space

# 2019-10-06 15:38:38.105868
+connect

# 2019-10-06 15:38:40.456504
+space

# 2019-10-06 15:39:04.679911
+connect

# 2019-10-06 15:39:06.451504
+space

# 2019-10-06 15:45:39.823503
+connect

# 2019-10-06 15:45:42.046531
+space

# 2019-10-06 15:46:01.807149
+connect

# 2019-10-06 15:46:03.696546
+space

# 2019-10-06 15:46:15.281103
+connect

# 2019-10-06 15:46:18.000531
+space

# 2019-10-06 15:46:24.220884
+name=test

# 2019-10-06 15:46:29.495534
+name test

# 2019-10-06 15:46:42.114486
+name:test

# 2019-10-06 15:47:09.223530
+name test

# 2019-10-06 15:47:37.228935
+connect

# 2019-10-06 15:47:38.888531
+space

# 2019-10-06 15:47:41.466962
+name test

# 2019-10-06 15:47:47.426131
+name Local

# 2019-10-06 15:50:00.177536
+connect

# 2019-10-06 15:50:01.996532
+space

# 2019-10-06 15:50:05.393232
+name Local

# 2019-10-06 15:52:35.011798
+connect

# 2019-10-06 15:52:36.535547
+space

# 2019-10-06 15:52:39.958504
+name Local

# 2019-10-06 15:54:44.736173
+connect

# 2019-10-06 15:54:46.762244
+space

# 2019-10-06 15:54:51.668102
+name Local

# 2019-10-06 15:57:14.815065
+connect

# 2019-10-06 15:57:16.436920
+space

# 2019-10-06 15:57:18.873312
+name Local

# 2019-10-06 15:57:26.171381
+q

# 2019-10-06 15:58:54.933574
+connect

# 2019-10-06 15:58:57.224504
+space

# 2019-10-06 15:59:11.947395
+connect

# 2019-10-06 15:59:13.622544
+space

# 2019-10-06 15:59:16.728252
+name exit

# 2019-10-06 15:59:20.377322
+connect

# 2019-10-06 15:59:22.991494
+space

# 2019-10-06 15:59:25.810534
+name Local

# 2019-10-06 16:00:17.116981
+connect

# 2019-10-06 16:00:18.815546
+space

# 2019-10-06 16:00:21.258533
+name Local

# 2019-10-06 16:00:30.919531
+q

# 2019-10-06 16:02:51.114515
+connect

# 2019-10-06 16:02:52.829018
+space

# 2019-10-06 16:02:54.077534
+name test

# 2019-10-06 16:02:58.974534
+name a

# 2019-10-06 16:03:22.838527
+connect

# 2019-10-06 16:03:24.358183
+space

# 2019-10-06 16:03:25.593556
+name a

# 2019-10-06 16:03:56.271535
+c

# 2019-10-06 16:03:57.374504
+connect

# 2019-10-06 16:03:59.449249
+space

# 2019-10-06 16:04:01.016504
+name a

# 2019-10-06 16:04:04.899534
+name Local

# 2019-10-06 16:04:07.641532
+lsit

# 2019-10-06 16:04:09.329531
+list

# 2019-10-06 16:04:14.480729
+space 

# 2019-10-06 16:04:20.497319
+space none

# 2019-10-06 16:04:25.460535
+name none

# 2019-10-06 16:04:32.033503
+name Local

# 2019-10-06 16:04:34.253025
+name

# 2019-10-06 16:05:23.727084
+connect

# 2019-10-06 16:05:25.710532
+space

# 2019-10-06 16:05:27.014533
+name a

# 2019-10-06 16:05:28.193466
+name

# 2019-10-06 16:05:31.289218
+name Local

# 2019-10-06 16:05:33.835540
+name

# 2019-10-06 16:05:39.206414
+q

# 2019-10-06 16:05:40.757332
+connect

# 2019-10-06 16:05:42.004562
+disconnect

# 2019-10-06 16:05:42.996532
+q

# 2019-10-06 16:31:10.984866
+connect

# 2019-10-06 16:31:13.719383
+space

# 2019-10-06 16:31:16.261504
+name Local

# 2019-10-06 16:32:13.674202
+connect

# 2019-10-06 16:32:15.740534
+space

# 2019-10-06 16:32:17.499532
+name Local

# 2019-10-06 16:32:21.138298
+name

# 2019-10-06 16:32:22.950528
+c

# 2019-10-06 16:32:24.177865
+con

# 2019-10-06 16:32:26.128199
+q

# 2019-10-06 16:32:27.548539
+connect

# 2019-10-06 16:32:30.595202
+ssl

# 2019-10-06 16:32:35.665504
+disconnect

# 2019-10-06 16:32:37.152531
+connect

# 2019-10-06 16:32:38.415650
+ssl

# 2019-10-06 16:32:40.019535
+connect

# 2019-10-06 16:32:43.822017
+space

# 2019-10-06 16:32:46.493416
+name Local

# 2019-10-06 16:32:49.071544
+q
